Introduction to machine learning with tidymodels
…
Can impute the missing BMI values

We may have missing data in more or one of our predictors. This can be a big problem is fields such as proteomics, where the missingness may relate to the of interest outcome itself.

stroke_rec <- stroke_rec %>%
step_normalize(bmi,age,avg_glucose_level) %>%
  step_impute_knn(bmi)

What does the data look like when processed?

Useful to check that the preprocessing isn’t doing anything unexpected.

stroke_rec %>% prep() %>% bake(NULL)

# A tibble: 3,831 × 11
   pat_id     age hypertension heart_disease work_related_stress urban_residence
    <int>   <dbl>        <int>         <int>               <int>           <int>
 1   2609  0.561             0             0                   0               0
 2   4070 -0.549             0             0                   0               1
 3   2369 -0.682             0             0                   0               0
 4   1098  0.384             0             0                   0               1
 5   1252 -1.75              0             0                   0               0
 6    634 -0.0603            0             0                   0               1
 7   2097  0.961             0             0                   0               1
 8   3912  0.162             0             0                   0               1
 9    356  1.01              1             0                   0               0
10   4262 -0.815             0             0                   0               0
# ℹ 3,821 more rows
# ℹ 5 more variables: avg_glucose_level <dbl>, bmi <dbl>, smokes <int>,
#   stroke <fct>, gender_Male <dbl>
…
